{
    "app-id" : "com.adrienplazas.Looney",
    "runtime" : "org.gnome.Platform",
    "runtime-version" : "master",
    "sdk" : "org.gnome.Sdk",
    "command" : "looney",
    "finish-args" : [
        "--socket=fallback-x11",
        "--socket=wayland"
    ],
    "cleanup" : [
        "/include",
        "/lib/pkgconfig",
        "/man",
        "/share/doc",
        "/share/gtk-doc",
        "/share/man",
        "/share/pkgconfig",
        "*.la",
        "*.a",
        "/lib/girepository-1.0",
        "/share/gir-1.0",
        "/bin/gtk4*",
        "/bin/pango*",
        "/bin/sassc"
    ],
    "modules" : [
        {
            "name" : "libadwaita",
            "buildsystem" : "meson",
            "config-opts" : [
                "-Dexamples=false",
                "-Dintrospection=disabled",
                "-Dtests=false"
            ],
            "sources" : [
                {
                    "type" : "git",
                    "url" : "https://gitlab.gnome.org/exalm/libadwaita.git",
                    "branch" : "main",
                    "commit" : "098bcc485b26796bc536505b261972ec29c997a0"
                }
            ]
        },
        {
            "name" : "looney",
            "builddir" : true,
            "buildsystem" : "meson",
            "sources" : [
                {
                    "type" : "git",
                    "url" : "https://gitlab.gnome.org/aplazas/looney.git",
                    "branch" : "main"
                }
            ]
        }
    ]
}
